<?xml version="1.0" encoding="UTF-8"?>
<!DOCTYPE suite SYSTEM "http://testng.org/testng-1.0.dtd">
<suite verbose="0" name="Failed suite [Test]">
  <test thread-count="5" verbose="0" name="Command line test(failed)">
    <classes>
      <class name="Test">
        <methods>
          <include name="test"/>
          <include name="verifyStatus"/>
        </methods>
      </class> <!-- Test -->
    </classes>
  </test> <!-- Command line test(failed) -->
</suite> <!-- Failed suite [Test] -->
